<svg width="12" height="13" viewBox="0 0 12 13" fill="none" xmlns="http://www.w3.org/2000/svg">
<path fill-rule="evenodd" clip-rule="evenodd" d="M3.58184 1.32213C4.07062 1.06476 4.66315 1.19284 5.01614 1.63217C5.08251 1.71479 5.13845 1.80617 5.18243 1.90399L5.47726 2.55949C5.75455 3.17601 5.94217 3.83297 6.03378 4.5083L6.14335 5.31587C6.21623 5.85333 6.82385 6.09426 7.21523 5.74096C7.50203 5.48211 7.84205 5.29712 8.20846 5.20064L8.60003 5.09756C8.84003 5.03435 9.08649 5.00243 9.33388 5.00243H9.88583C10.0601 5.00243 10.2312 5.05111 10.3816 5.14358C10.6839 5.32924 10.8697 5.67004 10.8697 6.03856V6.38828C10.8697 6.58236 10.8372 6.7749 10.7735 6.95698L10.6284 7.3716C10.4085 8.00008 10.0465 8.56268 9.57383 9.01078L9.18014 9.38389C8.77565 9.76727 8.32394 10.0915 7.8372 10.3478L7.24842 10.6578C6.46117 11.0723 5.62915 11.3851 4.7706 11.5893L3.88496 11.7999C3.72437 11.8381 3.55883 11.762 3.47616 11.6121L2.14788 9.20298L1.46475 7.43714C1.26592 6.92317 1.15385 6.3766 1.13359 5.82204C1.09897 4.87402 1.33377 3.93672 1.80794 3.13007L1.8327 3.08795C2.05849 2.70385 2.33334 2.35426 2.64955 2.04901L3.03435 1.67755C3.13585 1.57956 3.24983 1.49696 3.37298 1.4321L3.58184 1.32213ZM5.87894 0.863316C5.18922 0.00488613 4.03144 -0.245379 3.07638 0.257515L2.86752 0.36749C2.65043 0.481799 2.44953 0.627411 2.27061 0.800129L1.88582 1.17159C1.49324 1.55057 1.152 1.98458 0.871694 2.46144L0.846928 2.50356C0.254348 3.51165 -0.0390882 4.68304 0.00418018 5.86777C0.0294919 6.56086 0.169548 7.24392 0.418037 7.88625L1.11603 9.6905C1.12592 9.71608 1.1375 9.74088 1.15067 9.7648L2.49874 12.2097C2.82941 12.8095 3.49155 13.1137 4.13391 12.9609L5.01955 12.7503C5.967 12.525 6.88509 12.1798 7.75389 11.7224L8.34268 11.4124C8.92025 11.1083 9.45628 10.7235 9.93623 10.2686L10.3299 9.89549C10.9392 9.31807 11.4056 8.59305 11.6889 7.78313L11.834 7.36846C11.9438 7.05463 12 6.72278 12 6.38828V6.03856C12 5.2467 11.6006 4.51442 10.9511 4.11542C10.6278 3.91679 10.2602 3.81213 9.88583 3.81213H9.33388C8.99405 3.81213 8.65555 3.85602 8.32592 3.94281L7.93435 4.04589C7.66302 4.11734 7.40151 4.22193 7.155 4.3569L7.15269 4.33997C7.04502 3.5464 6.82458 2.77441 6.49874 2.04995L6.20386 1.39445C6.11792 1.20331 6.00868 1.02477 5.87894 0.863316Z" fill="#8455F8"/>
</svg>
