<svg width="32" height="13" viewBox="0 0 32 13" fill="none" xmlns="http://www.w3.org/2000/svg">
<rect width="31.3603" height="3.4023" fill="black"/>
<rect y="9.46729" width="31.3603" height="3.4023" fill="black"/>
</svg>
